{
  "project_info": {
    "project_number": "806157778989",
    "firebase_url": "https://xtraclass-986f2.firebaseio.com",
    "project_id": "xtraclass-986f2",
    "storage_bucket": "xtraclass-986f2.appspot.com"
  },
  "client": [
    {
      "client_info": {
        "mobilesdk_app_id": "1:806157778989:android:dc88aab894b8cfe01f38a4",
        "android_client_info": {
          "package_name": "com.pixplicity.xclass"
        }
      },
      "oauth_client": [
        {
          "client_id": "806157778989-etrtbnpvtvirn8ql9j5m760daimuosk4.apps.googleusercontent.com",
          "client_type": 1,
          "android_info": {
            "package_name": "com.pixplicity.xclass",
            "certificate_hash": "5b2a2cecaef6970a12f350d6ebe468fdffd5e6d2"
          }
        },
        {
          "client_id": "806157778989-gqe29qld1m7eeckssvm0di8tsvtbc3ib.apps.googleusercontent.com",
          "client_type": 1,
          "android_info": {
            "package_name": "com.pixplicity.xclass",
            "certificate_hash": "fb100ee1d21b976ca8983fba40b77e8dd0c68514"
          }
        },
        {
          "client_id": "806157778989-jfpb03pe8egfdi3bbliajac1r1ns1pud.apps.googleusercontent.com",
          "client_type": 1,
          "android_info": {
            "package_name": "com.pixplicity.xclass",
            "certificate_hash": "72b5b88057ea6eb456e1195291f4514085fc1411"
          }
        },
        {
          "client_id": "806157778989-h1rprmhoigkjd58q5nnpglal3d2pra0i.apps.googleusercontent.com",
          "client_type": 3
        }
      ],
      "api_key": [
        {
          "current_key": "AIzaSyCciQI-a0xkuf3z9wH_sgoGjdQY399onpw"
        }
      ],
      "services": {
        "appinvite_service": {
          "other_platform_oauth_client": [
            {
              "client_id": "806157778989-h1rprmhoigkjd58q5nnpglal3d2pra0i.apps.googleusercontent.com",
              "client_type": 3
            },
            {
              "client_id": "806157778989-fmvbe0s9ervvjrc0v3k9s86dgt7d05pc.apps.googleusercontent.com",
              "client_type": 2,
              "ios_info": {
                "bundle_id": "com.pixplicity.xclass"
              }
            }
          ]
        }
      }
    },
    {
      "client_info": {
        "mobilesdk_app_id": "1:806157778989:android:10c794c475a2410c1f38a4",
        "android_client_info": {
          "package_name": "com.realstudios.tablettracker"
        }
      },
      "oauth_client": [
        {
          "client_id": "806157778989-pkahoffgv5g6lpj0n23bmqu2romp6oqs.apps.googleusercontent.com",
          "client_type": 1,
          "android_info": {
            "package_name": "com.realstudios.tablettracker",
            "certificate_hash": "12d98a92ed89ff947aa120a79731d48e9a0dedfd"
          }
        },
        {
          "client_id": "806157778989-h1rprmhoigkjd58q5nnpglal3d2pra0i.apps.googleusercontent.com",
          "client_type": 3
        }
      ],
      "api_key": [
        {
          "current_key": "AIzaSyCciQI-a0xkuf3z9wH_sgoGjdQY399onpw"
        }
      ],
      "services": {
        "appinvite_service": {
          "other_platform_oauth_client": [
            {
              "client_id": "806157778989-h1rprmhoigkjd58q5nnpglal3d2pra0i.apps.googleusercontent.com",
              "client_type": 3
            },
            {
              "client_id": "806157778989-fmvbe0s9ervvjrc0v3k9s86dgt7d05pc.apps.googleusercontent.com",
              "client_type": 2,
              "ios_info": {
                "bundle_id": "com.pixplicity.xclass"
              }
            }
          ]
        }
      }
    },
    {
      "client_info": {
        "mobilesdk_app_id": "1:806157778989:android:f3409a60394b543d1f38a4",
        "android_client_info": {
          "package_name": "com.realstudiosonline.sid"
        }
      },
      "oauth_client": [
        {
          "client_id": "806157778989-h1rprmhoigkjd58q5nnpglal3d2pra0i.apps.googleusercontent.com",
          "client_type": 3
        }
      ],
      "api_key": [
        {
          "current_key": "AIzaSyCciQI-a0xkuf3z9wH_sgoGjdQY399onpw"
        }
      ],
      "services": {
        "appinvite_service": {
          "other_platform_oauth_client": [
            {
              "client_id": "806157778989-h1rprmhoigkjd58q5nnpglal3d2pra0i.apps.googleusercontent.com",
              "client_type": 3
            },
            {
              "client_id": "806157778989-fmvbe0s9ervvjrc0v3k9s86dgt7d05pc.apps.googleusercontent.com",
              "client_type": 2,
              "ios_info": {
                "bundle_id": "com.pixplicity.xclass"
              }
            }
          ]
        }
      }
    }
  ],
  "configuration_version": "1"
}